R User Notebook
…
## Warning: package 'tidytext' was built under R version 3.4.4

textdoc %>% unnest_tokens(input=text, output=word, token="words", to_lower = TRUE) -> tidytext
# This splits up your text into 'tokens'.
# By default a token is a word, but other options include "characters", "sentences","ngrams".
# By default all text will be converted to lowercase, and punctuation (eg .,!?£$&) will be removed.
# Numbers are not removed.

tidytext includes a stop_words tibble, which contain stopwords sourced from SMART, snowball, and onix.
You can remove these stopwords from you tidy data by doing an anti join, or create your own custom stopword tibble.

library(dplyr)
stop_words

## # A tibble: 1,149 x 2
##    word        lexicon
##    <chr>       <chr>  
##  1 a           SMART  
##  2 a's         SMART  
##  3 able        SMART  
##  4 about       SMART  
##  5 above       SMART  
##  6 according   SMART  
##  7 accordingly SMART  
##  8 across      SMART  
##  9 actually    SMART  
## 10 after       SMART  
## # ... with 1,139 more rows
…
